@startuml
!include C4_Container.puml
LAYOUT_WITH_LEGEND
System_Ext(Xero, "Xero")

System_Boundary(c1, "Xero API") {
    System(OAuth, "OAuth", "Ranqx API")
    System(Account, "Account", "Import Account data,\n ranqx API, Symfony 4")

    System(BalanceSheet, "BalanceSheet", "Import Balance data \n Symonfy 4, ranqx API")
    System(ProfitAndLoss, "Profit", "Import Profile and loss data\n Symonfy 4, ranqx API")

    System(Map, "Mapping", "Maping Xero data into Ranqx format,\nRanqx API")
    ContainerDb(rel_db, "Relational Database", "MySQL 5.7", "Stores Xero data")
}



Rel(Xero, OAuth, "Access Token", "HTTPS")
Rel(OAuth, Account, "Account data", "Ranqx API")
Rel(OAuth, BalanceSheet, "Balance data", "Ranqx API")
Rel(OAuth, ProfitAndLoss, "Profit data", "Ranqx API")


Rel_D(ProfitAndLoss, Map, 'Profit data to', 'Ranqx API')
Rel_D(BalanceSheet,Map, 'Balance data to', 'Ranqx API')
Rel_D(Account, Map,  'Account data to', 'Ranqx API')

Rel(Map, rel_db, 'Save ranqx data', 'Ranqx API')

Lay_R(BalanceSheet, ProfitAndLoss)
@enduml