{
  "calFinanceCurrentMonth" : [	],
  "calFinanceCurrentRolling" : [	],
  "calFinanceYearly" : [	],
  "debtorConcentration" : {
    "data" : "no",
    "debtorConcentration" : null
  },
  "equiFax" : {
    "db" : {
      "companyDetails" : {
        "_links" : {
          "self" : {
            "href" : "https://apiconnect.test.equifax.co.nz/reporting/reports/v1/organisationDetails/692967b0-f6fe-4d0f-a560-c54eea9de4a4",
            "title" : "Retrieve organisation details",
            "type" : "GET"
          }
        },
        "data" : {
          "body" : {
            "addressDetails" : [
              {
                "address" : "Level 8, 120 Albert Street Auckland Central Auckland 1010",
                "dateFrom" : "2009-06-23",
                "timeAtAddress" : "10 years 5 months",
                "typeName" : "Registered Address"
              },
              {
                "address" : "10 Hawke Crescent Beachlands Auckland 2018",
                "dateFrom" : "2013-12-19",
                "timeAtAddress" : "5 years 11 months",
                "typeName" : "Address for Service"
              },
              {
                "address" : "10 Victoria street, auckland",
                "dateFrom" : "2013-12-19",
                "timeAtAddress" : "5 years 11 months",
                "typeName" : "Postal Address"
              }
            ],
            "businessDetails" : {
              "businessType" : "NZ Limited Company",
              "constitutionFiled" : "No",
              "countryOfOrigin" : "New Zealand",
              "deregistrationDate" : null,
              "directorsCount" : 1,
              "financialYearEnd" : "",
              "industry" : {
                "code" : "111",
                "description" : ""
              },
              "lastFilingDate" : "",
              "nzbn" : "9429039167972",
              "nzsxCode" : "",
              "organisationNumber" : "487967",
              "previousRegisteredNames" : [							],
              "previousTradingNames" : [							],
              "registeredName" : "SOFTWARE 400 LIMITED",
              "registrationDate" : "2001-10-18",
              "registrationPeriod" : "29 years 1 month",
              "registrationStatus" : "REMOVED",
              "relatedOrganisationsCount" : 0,
              "shareHoldersCount" : 1,
              "sharesIssued" : "2000",
              "statusCode" : 80,
              "tradingName" : ""
            },
            "contactDetails" : {
              "emailAddress" : "-",
              "freePhone" : "-",
              "linkedIn" : "-",
              "phone" : "-",
              "website" : "-"
            }
          },
          "metadata" : {
            "client" : "KIWIBANK LIMITED - BUSINESS BANKING",
            "clientId" : "23618",
            "clientReference" : null,
            "completed" : "2019-11-25T21:38:34.105Z",
            "id" : "692967b0-f6fe-4d0f-a560-c54eea9de4a4",
            "lid" : "69J0",
            "reportType" : "organisationDetails",
            "requested" : "2019-11-25T21:38:33.214Z",
            "status" : "Complete",
            "subject" : "SOFTWARE 400 LIMITED",
            "timestamp" : "2019-11-26T10:38:33.214+13:00",
            "user" : "kiwibankcta",
            "userName" : "kiwibankcta"
          }
        },
        "metadata" : {
          "status" : "success",
          "timestamp" : 1574717953,
          "version" : "1.0.0"
        }
      },
      "creditActivitySummary" : {
        "_links" : {
          "self" : {
            "href" : "https://apiconnect.test.equifax.co.nz/reporting/reports/v1/creditActivitySummary/43f5b26d-337a-4da9-a6e0-a6047e214223",
            "title" : "Retrieve credit activity summary",
            "type" : "GET"
          }
        },
        "data" : {
          "body" : {
            "ageOfCreditFile" : "17 years 11 months",
            "collectionAgencyDefaultsLast12Months" : 0,
            "collectionAgencyDefaultsOver12Months" : 0,
            "courtJudgmentsLast12Months" : 0,
            "courtJudgmentsOver12Months" : 0,
            "creditorDefaultsLast12Months" : 0,
            "creditorDefaultsOver12Months" : 0,
            "enquiriesCount" : 60,
            "publicNoticesCount" : 0,
            "registeredSecuritiesCount" : 4,
            "tradeSuppliersCount" : 0
          },
          "metadata" : {
            "client" : "KIWIBANK LIMITED - BUSINESS BANKING",
            "clientId" : "23618",
            "clientReference" : null,
            "completed" : "2019-11-25T21:38:34.276Z",
            "id" : "43f5b26d-337a-4da9-a6e0-a6047e214223",
            "lid" : "66XM",
            "reportType" : "creditActivitySummary",
            "requested" : "2019-11-25T21:38:33.334Z",
            "status" : "Complete",
            "subject" : "SOFTWARE 400 LIMITED",
            "timestamp" : "2019-11-26T10:38:33.334+13:00",
            "user" : "kiwibankcta",
            "userName" : "kiwibankcta"
          }
        },
        "metadata" : {
          "status" : "success",
          "timestamp" : 1574717954,
          "version" : "1.0.0"
        }
      },
      "directors" : {
        "_links" : {
          "self" : {
            "href" : "https://apiconnect.test.equifax.co.nz/commercial/organisations/v1/9429032028089/directors",
            "title" : "Retrieve director details",
            "type" : "GET"
          }
        },
        "data" : {
          "businessName" : "SOFTWARE 400 LIMITED",
          "directors" : [
            {
              "roleAddress" : [
                {
                  "address1" : "2 Kenley Heights",
                  "address2" : "Flat Bush",
                  "address3" : "Manukau",
                  "address4" : null,
                  "countryCode" : "NZ",
                  "description" : null,
                  "startDate" : "2009-01-22T00:00:00.000+1300"
                }
              ],
              "rolePerson" : {
                "firstName" : "Stuart",
                "lastName" : "CALDWELL",
                "middleNames" : "John"
              },
              "roleStatus" : "ACTIVE",
              "roleType" : "Director"
            }
          ],
          "nzbn" : "9429032028089",
          "organisationNumber" : "487967",
          "registrationStatus" : "REMOVED"
        },
        "metadata" : {
          "status" : "success",
          "timestamp" : 1574717908,
          "version" : "1.0.0"
        }
      },
      "enquiryHistory" : {
        "_links" : {
          "self" : {
            "href" : "https://apiconnect.test.equifax.co.nz/reporting/reports/v1/enquiryHistory/7ed48b72-56fe-4630-88e1-0a3c06a8dda1",
            "title" : "Retrieve enquiry history",
            "type" : "GET"
          }
        },
        "data" : {
          "body" : {
            "accountTypes" : [
              {
                "code" : "CD",
                "description" : "Cash"
              },
              {
                "code" : "OC",
                "description" : "Other Credit"
              },
              {
                "code" : "ON",
                "description" : "Other Non-Credit"
              },
              {
                "code" : "SD",
                "description" : "Supplier Due Diligence"
              }
            ],
            "enquiries" : [
              {
                "accountType" : {
                  "code" : "OC",
                  "description" : "Other Credit"
                },
                "amount" : 1000,
                "date" : "2019-11-26",
                "enquirer" : {
                  "industry" : {
                    "code" : "K731",
                    "description" : "Central Bank"
                  },
                  "name" : "KIWIBANK LIMITED - BUSINESS BANKING"
                },
                "enquiryType" : {
                  "code" : "CA",
                  "description" : "New Credit Application"
                }
              },
              {
                "accountType" : {
                  "code" : "OC",
                  "description" : "Other Credit"
                },
                "amount" : 1000,
                "date" : "2019-11-22",
                "enquirer" : {
                  "industry" : {
                    "code" : "K731",
                    "description" : "Central Bank"
                  },
                  "name" : "KIWIBANK LIMITED - BUSINESS BANKING"
                },
                "enquiryType" : {
                  "code" : "CA",
                  "description" : "New Credit Application"
                }
              },
              {
                "accountType" : {
                  "code" : "OC",
                  "description" : "Other Credit"
                },
                "amount" : 1000,
                "date" : "2019-11-21",
                "enquirer" : {
                  "industry" : {
                    "code" : "K731",
                    "description" : "Central Bank"
                  },
                  "name" : "KIWIBANK LIMITED - BUSINESS BANKING"
                },
                "enquiryType" : {
                  "code" : "CA",
                  "description" : "New Credit Application"
                }
              },
              {
                "accountType" : {
                  "code" : "OC",
                  "description" : "Other Credit"
                },
                "amount" : 1000,
                "date" : "2019-11-20",
                "enquirer" : {
                  "industry" : {
                    "code" : "K731",
                    "description" : "Central Bank"
                  },
                  "name" : "KIWIBANK LIMITED - BUSINESS BANKING"
                },
                "enquiryType" : {
                  "code" : "CA",
                  "description" : "New Credit Application"
                }
              },
              {
                "accountType" : {
                  "code" : "OC",
                  "description" : "Other Credit"
                },
                "amount" : 1000,
                "date" : "2019-11-15",
                "enquirer" : {
                  "industry" : {
                    "code" : "K731",
                    "description" : "Central Bank"
                  },
                  "name" : "KIWIBANK LIMITED - BUSINESS BANKING"
                },
                "enquiryType" : {
                  "code" : "CA",
                  "description" : "New Credit Application"
                }
              },
              {
                "accountType" : {
                  "code" : "OC",
                  "description" : "Other Credit"
                },
                "amount" : 1000,
                "date" : "2019-11-14",
                "enquirer" : {
                  "industry" : {
                    "code" : "K731",
                    "description" : "Central Bank"
                  },
                  "name" : "KIWIBANK LIMITED - BUSINESS BANKING"
                },
                "enquiryType" : {
                  "code" : "CA",
                  "description" : "New Credit Application"
                }
              },
              {
                "accountType" : {
                  "code" : "OC",
                  "description" : "Other Credit"
                },
                "amount" : 1000,
                "date" : "2019-11-13",
                "enquirer" : {
                  "industry" : {
                    "code" : "K731",
                    "description" : "Central Bank"
                  },
                  "name" : "KIWIBANK LIMITED - BUSINESS BANKING"
                },
                "enquiryType" : {
                  "code" : "CA",
                  "description" : "New Credit Application"
                }
              },
              {
                "accountType" : {
                  "code" : "OC",
                  "description" : "Other Credit"
                },
                "amount" : 1000,
                "date" : "2019-11-12",
                "enquirer" : {
                  "industry" : {
                    "code" : "K731",
                    "description" : "Central Bank"
                  },
                  "name" : "KIWIBANK LIMITED - BUSINESS BANKING"
                },
                "enquiryType" : {
                  "code" : "CA",
                  "description" : "New Credit Application"
                }
              },
              {
                "accountType" : {
                  "code" : "OC",
                  "description" : "Other Credit"
                },
                "amount" : 1000,
                "date" : "2019-11-08",
                "enquirer" : {
                  "industry" : {
                    "code" : "K731",
                    "description" : "Central Bank"
                  },
                  "name" : "KIWIBANK LIMITED - BUSINESS BANKING"
                },
                "enquiryType" : {
                  "code" : "CA",
                  "description" : "New Credit Application"
                }
              },
              {
                "accountType" : {
                  "code" : "OC",
                  "description" : "Other Credit"
                },
                "amount" : 1000,
                "date" : "2019-11-07",
                "enquirer" : {
                  "industry" : {
                    "code" : "K731",
                    "description" : "Central Bank"
                  },
                  "name" : "KIWIBANK LIMITED - BUSINESS BANKING"
                },
                "enquiryType" : {
                  "code" : "CA",
                  "description" : "New Credit Application"
                }
              },
              {
                "accountType" : {
                  "code" : "OC",
                  "description" : "Other Credit"
                },
                "amount" : 1000,
                "date" : "2019-11-06",
                "enquirer" : {
                  "industry" : {
                    "code" : "K731",
                    "description" : "Central Bank"
                  },
                  "name" : "KIWIBANK LIMITED - BUSINESS BANKING"
                },
                "enquiryType" : {
                  "code" : "CA",
                  "description" : "New Credit Application"
                }
              },
              {
                "accountType" : {
                  "code" : "OC",
                  "description" : "Other Credit"
                },
                "amount" : 1000,
                "date" : "2019-11-05",
                "enquirer" : {
                  "industry" : {
                    "code" : "K731",
                    "description" : "Central Bank"
                  },
                  "name" : "KIWIBANK LIMITED - BUSINESS BANKING"
                },
                "enquiryType" : {
                  "code" : "CA",
                  "description" : "New Credit Application"
                }
              },
              {
                "accountType" : {
                  "code" : "OC",
                  "description" : "Other Credit"
                },
                "amount" : 1000,
                "date" : "2019-11-04",
                "enquirer" : {
                  "industry" : {
                    "code" : "K731",
                    "description" : "Central Bank"
                  },
                  "name" : "KIWIBANK LIMITED - BUSINESS BANKING"
                },
                "enquiryType" : {
                  "code" : "CA",
                  "description" : "New Credit Application"
                }
              },
              {
                "accountType" : {
                  "code" : "OC",
                  "description" : "Other Credit"
                },
                "amount" : 1000,
                "date" : "2019-11-01",
                "enquirer" : {
                  "industry" : {
                    "code" : "K731",
                    "description" : "Central Bank"
                  },
                  "name" : "KIWIBANK LIMITED - BUSINESS BANKING"
                },
                "enquiryType" : {
                  "code" : "CA",
                  "description" : "New Credit Application"
                }
              },
              {
                "accountType" : {
                  "code" : "OC",
                  "description" : "Other Credit"
                },
                "amount" : 1000,
                "date" : "2019-10-31",
                "enquirer" : {
                  "industry" : {
                    "code" : "K731",
                    "description" : "Central Bank"
                  },
                  "name" : "KIWIBANK LIMITED - BUSINESS BANKING"
                },
                "enquiryType" : {
                  "code" : "CA",
                  "description" : "New Credit Application"
                }
              },
              {
                "accountType" : {
                  "code" : "OC",
                  "description" : "Other Credit"
                },
                "amount" : 1000,
                "date" : "2019-10-30",
                "enquirer" : {
                  "industry" : {
                    "code" : "K731",
                    "description" : "Central Bank"
                  },
                  "name" : "KIWIBANK LIMITED - BUSINESS BANKING"
                },
                "enquiryType" : {
                  "code" : "CA",
                  "description" : "New Credit Application"
                }
              },
              {
                "accountType" : {
                  "code" : "OC",
                  "description" : "Other Credit"
                },
                "amount" : 1000,
                "date" : "2019-10-29",
                "enquirer" : {
                  "industry" : {
                    "code" : "K731",
                    "description" : "Central Bank"
                  },
                  "name" : "KIWIBANK LIMITED - BUSINESS BANKING"
                },
                "enquiryType" : {
                  "code" : "CA",
                  "description" : "New Credit Application"
                }
              },
              {
                "accountType" : {
                  "code" : "OC",
                  "description" : "Other Credit"
                },
                "amount" : 1000,
                "date" : "2019-10-25",
                "enquirer" : {
                  "industry" : {
                    "code" : "K731",
                    "description" : "Central Bank"
                  },
                  "name" : "KIWIBANK LIMITED - BUSINESS BANKING"
                },
                "enquiryType" : {
                  "code" : "CA",
                  "description" : "New Credit Application"
                }
              },
              {
                "accountType" : {
                  "code" : "OC",
                  "description" : "Other Credit"
                },
                "amount" : 1000,
                "date" : "2019-10-24",
                "enquirer" : {
                  "industry" : {
                    "code" : "K731",
                    "description" : "Central Bank"
                  },
                  "name" : "KIWIBANK LIMITED - BUSINESS BANKING"
                },
                "enquiryType" : {
                  "code" : "CA",
                  "description" : "New Credit Application"
                }
              },
              {
                "accountType" : {
                  "code" : "OC",
                  "description" : "Other Credit"
                },
                "amount" : 1000,
                "date" : "2019-10-23",
                "enquirer" : {
                  "industry" : {
                    "code" : "K731",
                    "description" : "Central Bank"
                  },
                  "name" : "KIWIBANK LIMITED - BUSINESS BANKING"
                },
                "enquiryType" : {
                  "code" : "CA",
                  "description" : "New Credit Application"
                }
              },
              {
                "accountType" : {
                  "code" : "OC",
                  "description" : "Other Credit"
                },
                "amount" : 1000,
                "date" : "2019-10-22",
                "enquirer" : {
                  "industry" : {
                    "code" : "K731",
                    "description" : "Central Bank"
                  },
                  "name" : "KIWIBANK LIMITED - BUSINESS BANKING"
                },
                "enquiryType" : {
                  "code" : "CA",
                  "description" : "New Credit Application"
                }
              },
              {
                "accountType" : {
                  "code" : "OC",
                  "description" : "Other Credit"
                },
                "amount" : 1000,
                "date" : "2019-10-21",
                "enquirer" : {
                  "industry" : {
                    "code" : "K731",
                    "description" : "Central Bank"
                  },
                  "name" : "KIWIBANK LIMITED - BUSINESS BANKING"
                },
                "enquiryType" : {
                  "code" : "CA",
                  "description" : "New Credit Application"
                }
              },
              {
                "accountType" : {
                  "code" : "OC",
                  "description" : "Other Credit"
                },
                "amount" : 1000,
                "date" : "2019-10-18",
                "enquirer" : {
                  "industry" : {
                    "code" : "K731",
                    "description" : "Central Bank"
                  },
                  "name" : "KIWIBANK LIMITED - BUSINESS BANKING"
                },
                "enquiryType" : {
                  "code" : "CA",
                  "description" : "New Credit Application"
                }
              },
              {
                "accountType" : {
                  "code" : "OC",
                  "description" : "Other Credit"
                },
                "amount" : 1000,
                "date" : "2019-10-17",
                "enquirer" : {
                  "industry" : {
                    "code" : "K731",
                    "description" : "Central Bank"
                  },
                  "name" : "KIWIBANK LIMITED - BUSINESS BANKING"
                },
                "enquiryType" : {
                  "code" : "CA",
                  "description" : "New Credit Application"
                }
              },
              {
                "accountType" : {
                  "code" : "OC",
                  "description" : "Other Credit"
                },
                "amount" : 1000,
                "date" : "2019-10-16",
                "enquirer" : {
                  "industry" : {
                    "code" : "K731",
                    "description" : "Central Bank"
                  },
                  "name" : "KIWIBANK LIMITED - BUSINESS BANKING"
                },
                "enquiryType" : {
                  "code" : "CA",
                  "description" : "New Credit Application"
                }
              },
              {
                "accountType" : {
                  "code" : "OC",
                  "description" : "Other Credit"
                },
                "amount" : 1000,
                "date" : "2019-10-15",
                "enquirer" : {
                  "industry" : {
                    "code" : "K731",
                    "description" : "Central Bank"
                  },
                  "name" : "KIWIBANK LIMITED - BUSINESS BANKING"
                },
                "enquiryType" : {
                  "code" : "CA",
                  "description" : "New Credit Application"
                }
              },
              {
                "accountType" : {
                  "code" : "OC",
                  "description" : "Other Credit"
                },
                "amount" : 1000,
                "date" : "2019-10-14",
                "enquirer" : {
                  "industry" : {
                    "code" : "K731",
                    "description" : "Central Bank"
                  },
                  "name" : "KIWIBANK LIMITED - BUSINESS BANKING"
                },
                "enquiryType" : {
                  "code" : "CA",
                  "description" : "New Credit Application"
                }
              },
              {
                "accountType" : {
                  "code" : "OC",
                  "description" : "Other Credit"
                },
                "amount" : 1000,
                "date" : "2019-10-11",
                "enquirer" : {
                  "industry" : {
                    "code" : "K731",
                    "description" : "Central Bank"
                  },
                  "name" : "KIWIBANK LIMITED - BUSINESS BANKING"
                },
                "enquiryType" : {
                  "code" : "CA",
                  "description" : "New Credit Application"
                }
              },
              {
                "accountType" : {
                  "code" : "OC",
                  "description" : "Other Credit"
                },
                "amount" : 1000,
                "date" : "2019-10-10",
                "enquirer" : {
                  "industry" : {
                    "code" : "K731",
                    "description" : "Central Bank"
                  },
                  "name" : "KIWIBANK LIMITED - BUSINESS BANKING"
                },
                "enquiryType" : {
                  "code" : "CA",
                  "description" : "New Credit Application"
                }
              },
              {
                "accountType" : {
                  "code" : "OC",
                  "description" : "Other Credit"
                },
                "amount" : 1000,
                "date" : "2019-10-09",
                "enquirer" : {
                  "industry" : {
                    "code" : "K731",
                    "description" : "Central Bank"
                  },
                  "name" : "KIWIBANK LIMITED - BUSINESS BANKING"
                },
                "enquiryType" : {
                  "code" : "CA",
                  "description" : "New Credit Application"
                }
              },
              {
                "accountType" : {
                  "code" : "OC",
                  "description" : "Other Credit"
                },
                "amount" : 1000,
                "date" : "2019-10-08",
                "enquirer" : {
                  "industry" : {
                    "code" : "K731",
                    "description" : "Central Bank"
                  },
                  "name" : "KIWIBANK LIMITED - BUSINESS BANKING"
                },
                "enquiryType" : {
                  "code" : "CA",
                  "description" : "New Credit Application"
                }
              },
              {
                "accountType" : {
                  "code" : "ON",
                  "description" : "Other Non-Credit"
                },
                "amount" : 0,
                "date" : "2019-10-07",
                "enquirer" : {
                  "industry" : {
                    "code" : "L786",
                    "description" : "Debt Collection"
                  },
                  "name" : "CTB TEST SUPPLIER    CTA  16929"
                },
                "enquiryType" : {
                  "code" : "NC",
                  "description" : "Non Credit Enquiry"
                }
              },
              {
                "accountType" : {
                  "code" : "OC",
                  "description" : "Other Credit"
                },
                "amount" : 1000,
                "date" : "2019-10-07",
                "enquirer" : {
                  "industry" : {
                    "code" : "K731",
                    "description" : "Central Bank"
                  },
                  "name" : "KIWIBANK LIMITED - BUSINESS BANKING"
                },
                "enquiryType" : {
                  "code" : "CA",
                  "description" : "New Credit Application"
                }
              },
              {
                "accountType" : {
                  "code" : "OC",
                  "description" : "Other Credit"
                },
                "amount" : 1000,
                "date" : "2019-10-05",
                "enquirer" : {
                  "industry" : {
                    "code" : "K731",
                    "description" : "Central Bank"
                  },
                  "name" : "KIWIBANK LIMITED - BUSINESS BANKING"
                },
                "enquiryType" : {
                  "code" : "CA",
                  "description" : "New Credit Application"
                }
              },
              {
                "accountType" : {
                  "code" : "OC",
                  "description" : "Other Credit"
                },
                "amount" : 1000,
                "date" : "2019-10-04",
                "enquirer" : {
                  "industry" : {
                    "code" : "K731",
                    "description" : "Central Bank"
                  },
                  "name" : "KIWIBANK LIMITED - BUSINESS BANKING"
                },
                "enquiryType" : {
                  "code" : "CA",
                  "description" : "New Credit Application"
                }
              },
              {
                "accountType" : {
                  "code" : "OC",
                  "description" : "Other Credit"
                },
                "amount" : 1000,
                "date" : "2019-10-03",
                "enquirer" : {
                  "industry" : {
                    "code" : "K731",
                    "description" : "Central Bank"
                  },
                  "name" : "KIWIBANK LIMITED - BUSINESS BANKING"
                },
                "enquiryType" : {
                  "code" : "CA",
                  "description" : "New Credit Application"
                }
              },
              {
                "accountType" : {
                  "code" : "OC",
                  "description" : "Other Credit"
                },
                "amount" : 1000,
                "date" : "2019-10-02",
                "enquirer" : {
                  "industry" : {
                    "code" : "K731",
                    "description" : "Central Bank"
                  },
                  "name" : "KIWIBANK LIMITED - BUSINESS BANKING"
                },
                "enquiryType" : {
                  "code" : "CA",
                  "description" : "New Credit Application"
                }
              },
              {
                "accountType" : {
                  "code" : "OC",
                  "description" : "Other Credit"
                },
                "amount" : 1000,
                "date" : "2019-10-01",
                "enquirer" : {
                  "industry" : {
                    "code" : "K731",
                    "description" : "Central Bank"
                  },
                  "name" : "KIWIBANK LIMITED - BUSINESS BANKING"
                },
                "enquiryType" : {
                  "code" : "CA",
                  "description" : "New Credit Application"
                }
              },
              {
                "accountType" : {
                  "code" : "OC",
                  "description" : "Other Credit"
                },
                "amount" : 1000,
                "date" : "2019-09-30",
                "enquirer" : {
                  "industry" : {
                    "code" : "K731",
                    "description" : "Central Bank"
                  },
                  "name" : "KIWIBANK LIMITED - BUSINESS BANKING"
                },
                "enquiryType" : {
                  "code" : "CA",
                  "description" : "New Credit Application"
                }
              },
              {
                "accountType" : {
                  "code" : "OC",
                  "description" : "Other Credit"
                },
                "amount" : 1000,
                "date" : "2019-09-29",
                "enquirer" : {
                  "industry" : {
                    "code" : "K731",
                    "description" : "Central Bank"
                  },
                  "name" : "KIWIBANK LIMITED - BUSINESS BANKING"
                },
                "enquiryType" : {
                  "code" : "CA",
                  "description" : "New Credit Application"
                }
              },
              {
                "accountType" : {
                  "code" : "OC",
                  "description" : "Other Credit"
                },
                "amount" : 1000,
                "date" : "2019-09-28",
                "enquirer" : {
                  "industry" : {
                    "code" : "K731",
                    "description" : "Central Bank"
                  },
                  "name" : "KIWIBANK LIMITED - BUSINESS BANKING"
                },
                "enquiryType" : {
                  "code" : "CA",
                  "description" : "New Credit Application"
                }
              },
              {
                "accountType" : {
                  "code" : "OC",
                  "description" : "Other Credit"
                },
                "amount" : 1000,
                "date" : "2019-09-27",
                "enquirer" : {
                  "industry" : {
                    "code" : "K731",
                    "description" : "Central Bank"
                  },
                  "name" : "KIWIBANK LIMITED - BUSINESS BANKING"
                },
                "enquiryType" : {
                  "code" : "CA",
                  "description" : "New Credit Application"
                }
              },
              {
                "accountType" : {
                  "code" : "OC",
                  "description" : "Other Credit"
                },
                "amount" : 1000,
                "date" : "2019-09-26",
                "enquirer" : {
                  "industry" : {
                    "code" : "K731",
                    "description" : "Central Bank"
                  },
                  "name" : "KIWIBANK LIMITED - BUSINESS BANKING"
                },
                "enquiryType" : {
                  "code" : "CA",
                  "description" : "New Credit Application"
                }
              },
              {
                "accountType" : {
                  "code" : "OC",
                  "description" : "Other Credit"
                },
                "amount" : 1000,
                "date" : "2019-09-25",
                "enquirer" : {
                  "industry" : {
                    "code" : "K731",
                    "description" : "Central Bank"
                  },
                  "name" : "KIWIBANK LIMITED - BUSINESS BANKING"
                },
                "enquiryType" : {
                  "code" : "CA",
                  "description" : "New Credit Application"
                }
              },
              {
                "accountType" : {
                  "code" : "OC",
                  "description" : "Other Credit"
                },
                "amount" : 1000,
                "date" : "2019-09-24",
                "enquirer" : {
                  "industry" : {
                    "code" : "K731",
                    "description" : "Central Bank"
                  },
                  "name" : "KIWIBANK LIMITED - BUSINESS BANKING"
                },
                "enquiryType" : {
                  "code" : "CA",
                  "description" : "New Credit Application"
                }
              },
              {
                "accountType" : {
                  "code" : "OC",
                  "description" : "Other Credit"
                },
                "amount" : 1000,
                "date" : "2019-09-23",
                "enquirer" : {
                  "industry" : {
                    "code" : "K731",
                    "description" : "Central Bank"
                  },
                  "name" : "KIWIBANK LIMITED - BUSINESS BANKING"
                },
                "enquiryType" : {
                  "code" : "CA",
                  "description" : "New Credit Application"
                }
              },
              {
                "accountType" : {
                  "code" : "OC",
                  "description" : "Other Credit"
                },
                "amount" : 1000,
                "date" : "2019-09-20",
                "enquirer" : {
                  "industry" : {
                    "code" : "K731",
                    "description" : "Central Bank"
                  },
                  "name" : "KIWIBANK LIMITED - BUSINESS BANKING"
                },
                "enquiryType" : {
                  "code" : "CA",
                  "description" : "New Credit Application"
                }
              },
              {
                "accountType" : {
                  "code" : "OC",
                  "description" : "Other Credit"
                },
                "amount" : 1000,
                "date" : "2019-09-19",
                "enquirer" : {
                  "industry" : {
                    "code" : "K731",
                    "description" : "Central Bank"
                  },
                  "name" : "KIWIBANK LIMITED - BUSINESS BANKING"
                },
                "enquiryType" : {
                  "code" : "CA",
                  "description" : "New Credit Application"
                }
              },
              {
                "accountType" : {
                  "code" : "OC",
                  "description" : "Other Credit"
                },
                "amount" : 1000,
                "date" : "2019-09-18",
                "enquirer" : {
                  "industry" : {
                    "code" : "K731",
                    "description" : "Central Bank"
                  },
                  "name" : "KIWIBANK LIMITED - BUSINESS BANKING"
                },
                "enquiryType" : {
                  "code" : "CA",
                  "description" : "New Credit Application"
                }
              },
              {
                "accountType" : {
                  "code" : "OC",
                  "description" : "Other Credit"
                },
                "amount" : 1000,
                "date" : "2019-09-17",
                "enquirer" : {
                  "industry" : {
                    "code" : "K731",
                    "description" : "Central Bank"
                  },
                  "name" : "KIWIBANK LIMITED - BUSINESS BANKING"
                },
                "enquiryType" : {
                  "code" : "CA",
                  "description" : "New Credit Application"
                }
              },
              {
                "accountType" : {
                  "code" : "OC",
                  "description" : "Other Credit"
                },
                "amount" : 1000,
                "date" : "2019-09-16",
                "enquirer" : {
                  "industry" : {
                    "code" : "K731",
                    "description" : "Central Bank"
                  },
                  "name" : "KIWIBANK LIMITED - BUSINESS BANKING"
                },
                "enquiryType" : {
                  "code" : "CA",
                  "description" : "New Credit Application"
                }
              },
              {
                "accountType" : {
                  "code" : "OC",
                  "description" : "Other Credit"
                },
                "amount" : 1000,
                "date" : "2019-09-13",
                "enquirer" : {
                  "industry" : {
                    "code" : "K731",
                    "description" : "Central Bank"
                  },
                  "name" : "KIWIBANK LIMITED - BUSINESS BANKING"
                },
                "enquiryType" : {
                  "code" : "CA",
                  "description" : "New Credit Application"
                }
              },
              {
                "accountType" : {
                  "code" : "OC",
                  "description" : "Other Credit"
                },
                "amount" : 1000,
                "date" : "2019-09-12",
                "enquirer" : {
                  "industry" : {
                    "code" : "K731",
                    "description" : "Central Bank"
                  },
                  "name" : "KIWIBANK LIMITED - BUSINESS BANKING"
                },
                "enquiryType" : {
                  "code" : "CA",
                  "description" : "New Credit Application"
                }
              },
              {
                "accountType" : {
                  "code" : "OC",
                  "description" : "Other Credit"
                },
                "amount" : 1000,
                "date" : "2019-09-10",
                "enquirer" : {
                  "industry" : {
                    "code" : "K731",
                    "description" : "Central Bank"
                  },
                  "name" : "KIWIBANK LIMITED - BUSINESS BANKING"
                },
                "enquiryType" : {
                  "code" : "CA",
                  "description" : "New Credit Application"
                }
              },
              {
                "accountType" : {
                  "code" : "OC",
                  "description" : "Other Credit"
                },
                "amount" : 1000,
                "date" : "2019-09-04",
                "enquirer" : {
                  "industry" : {
                    "code" : "K731",
                    "description" : "Central Bank"
                  },
                  "name" : "KIWIBANK LIMITED - BUSINESS BANKING"
                },
                "enquiryType" : {
                  "code" : "CA",
                  "description" : "New Credit Application"
                }
              },
              {
                "accountType" : {
                  "code" : "OC",
                  "description" : "Other Credit"
                },
                "amount" : 1000,
                "date" : "2019-09-03",
                "enquirer" : {
                  "industry" : {
                    "code" : "K731",
                    "description" : "Central Bank"
                  },
                  "name" : "KIWIBANK LIMITED - BUSINESS BANKING"
                },
                "enquiryType" : {
                  "code" : "CA",
                  "description" : "New Credit Application"
                }
              },
              {
                "accountType" : {
                  "code" : "OC",
                  "description" : "Other Credit"
                },
                "amount" : 1000,
                "date" : "2019-09-02",
                "enquirer" : {
                  "industry" : {
                    "code" : "K731",
                    "description" : "Central Bank"
                  },
                  "name" : "KIWIBANK LIMITED - BUSINESS BANKING"
                },
                "enquiryType" : {
                  "code" : "CA",
                  "description" : "New Credit Application"
                }
              },
              {
                "accountType" : {
                  "code" : "OC",
                  "description" : "Other Credit"
                },
                "amount" : 1000,
                "date" : "2019-08-30",
                "enquirer" : {
                  "industry" : {
                    "code" : "K731",
                    "description" : "Central Bank"
                  },
                  "name" : "KIWIBANK LIMITED - BUSINESS BANKING"
                },
                "enquiryType" : {
                  "code" : "CA",
                  "description" : "New Credit Application"
                }
              },
              {
                "accountType" : {
                  "code" : "CD",
                  "description" : "Cash"
                },
                "amount" : 1,
                "date" : "2018-09-20",
                "enquirer" : {
                  "industry" : {
                    "code" : "L786",
                    "description" : "Debt Collection"
                  },
                  "name" : "CTB TEST SUPPLIER    CTA  16929"
                },
                "enquiryType" : {
                  "code" : "",
                  "description" : null
                }
              },
              {
                "accountType" : {
                  "code" : "SD",
                  "description" : "Supplier Due Diligence"
                },
                "amount" : 0,
                "date" : "2017-10-09",
                "enquirer" : {
                  "industry" : {
                    "code" : "L786",
                    "description" : "Debt Collection"
                  },
                  "name" : "CTB TEST SUPPLIER    CTA  16929"
                },
                "enquiryType" : {
                  "code" : "NC",
                  "description" : "Non Credit Enquiry"
                }
              }
            ],
            "enquiryTotals" : {
              "count" : 60,
              "valueAverage" : 950,
              "valueSum" : 57001
            },
            "enquiryTotalsLast12Months" : {
              "count" : 58,
              "valueAverage" : 982,
              "valueSum" : 57000
            },
            "enquiryTotalsLast5Years" : [
              {
                "count" : 58,
                "name" : "1-6",
                "valueAverage" : 982,
                "valueSum" : 57000
              },
              {
                "count" : 0,
                "name" : "7-12",
                "valueAverage" : 0,
                "valueSum" : 0
              },
              {
                "count" : 1,
                "name" : "13-18",
                "valueAverage" : 1,
                "valueSum" : 1
              },
              {
                "count" : 0,
                "name" : "19-24",
                "valueAverage" : 0,
                "valueSum" : 0
              },
              {
                "count" : 1,
                "name" : "25-30",
                "valueAverage" : 0,
                "valueSum" : 0
              },
              {
                "count" : 0,
                "name" : "31-36",
                "valueAverage" : 0,
                "valueSum" : 0
              },
              {
                "count" : 0,
                "name" : "37-42",
                "valueAverage" : 0,
                "valueSum" : 0
              },
              {
                "count" : 0,
                "name" : "43-48",
                "valueAverage" : 0,
                "valueSum" : 0
              },
              {
                "count" : 0,
                "name" : "49-54",
                "valueAverage" : 0,
                "valueSum" : 0
              },
              {
                "count" : 0,
                "name" : "55-60",
                "valueAverage" : 0,
                "valueSum" : 0
              }
            ],
            "enquiryTypes" : [
              {
                "code" : "CA",
                "description" : "New Credit Application"
              },
              {
                "code" : "NC",
                "description" : "Non Credit Enquiry"
              }
            ],
            "industries" : [
              {
                "code" : "K731",
                "description" : "Central Bank"
              },
              {
                "code" : "L786",
                "description" : "Debt Collection"
              }
            ]
          },
          "metadata" : {
            "client" : "KIWIBANK LIMITED - BUSINESS BANKING",
            "clientId" : "23618",
            "clientReference" : null,
            "completed" : "2019-11-25T21:38:34.205Z",
            "id" : "7ed48b72-56fe-4630-88e1-0a3c06a8dda1",
            "lid" : "66BR",
            "reportType" : "enquiryHistory",
            "requested" : "2019-11-25T21:38:33.274Z",
            "status" : "Complete",
            "subject" : "SOFTWARE 400 LIMITED",
            "timestamp" : "2019-11-26T10:38:33.274+13:00",
            "user" : "kiwibankcta",
            "userName" : "kiwibankcta"
          }
        },
        "metadata" : {
          "status" : "success",
          "timestamp" : 1574717954,
          "version" : "1.0.0"
        }
      },
      "management" : {
        "_links" : {
          "self" : {
            "href" : "https://apiconnect.test.equifax.co.nz/reporting/reports/v1/management/21edc7b9-4b02-4b70-84cd-4b44a0cbbeb8",
            "title" : "Retrieve management details",
            "type" : "GET"
          }
        },
        "data" : {
          "body" : {
            "currentOfficeHolders" : [
              {
                "officeHolderDetails" : {
                  "address" : "10 Hawke Crescent, Beachlands, Auckland 2018, New Zealand",
                  "appointmentDate" : "1990-10-18",
                  "name" : "Stuart John CALDWELL",
                  "resignationDate" : null,
                  "role" : "Director"
                },
                "otherOfficeHoldings" : [								],
                "totalOtherOfficeHoldings" : "0",
                "totalPreviousOfficeHoldings" : "0"
              }
            ],
            "externalAdministrationDetails" : [						],
            "previousOfficeHolders" : [
              {
                "officeHolderDetails" : {
                  "address" : "5 Campbell Road, Maraetai, Auckland 1705",
                  "appointmentDate" : "1990-10-18",
                  "name" : "Annette Gail CALDWELL",
                  "resignationDate" : "2009-06-10",
                  "role" : null
                }
              }
            ],
            "summary" : {
              "longestServingCurrentOfficeHolder" : "Stuart John CALDWELL",
              "relatedEntityRiskFlag" : "0",
              "totalPreviousOfficeHoldersLast12Months" : 0,
              "totalcurrentOfficeHolders" : 1,
              "underExternalAdministration" : false
            }
          },
          "metadata" : {
            "client" : "KIWIBANK LIMITED - BUSINESS BANKING",
            "clientId" : "23618",
            "clientReference" : null,
            "completed" : "2019-11-25T21:38:34.017Z",
            "id" : "21edc7b9-4b02-4b70-84cd-4b44a0cbbeb8",
            "lid" : "6E4O",
            "reportType" : "management",
            "requested" : "2019-11-25T21:38:33.154Z",
            "status" : "Complete",
            "subject" : "SOFTWARE 400 LIMITED",
            "timestamp" : "2019-11-26T10:38:33.154+13:00",
            "user" : "kiwibankcta",
            "userName" : "kiwibankcta"
          }
        },
        "metadata" : {
          "status" : "success",
          "timestamp" : 1574717954,
          "version" : "1.0.0"
        }
      },
      "org" : {
        "_links" : {
          "directorDetails" : {
            "href" : "https://apiconnect.test.equifax.co.nz/commercial/organisations/v1/9429032028089/directors",
            "title" : "Retrieve director details",
            "type" : "GET"
          },
          "reportTypes" : {
            "href" : "https://apiconnect.test.equifax.co.nz/reporting/types/v1/organisation/9429032028089",
            "title" : "Retrieve report types",
            "type" : "GET"
          }
        },
        "businessName" : "SOFTWARE 400 LIMITED",
        "nzbn" : "9429032028089",
        "organisationNumber" : "487967",
        "previousNames" : [				],
        "registrationStatus" : "REMOVED",
        "tradingNames" : [				]
      }
    },
    "decision" : {
      "companyDetails" : {
        "ageOfCompany" : "1990-10-18",
        "industryCode" : ""
      },
      "enquiryHistory" : {
        "credit_enquiries_24M" : 59,
        "enquiryTotalsLast5Years" : {
          "average" : 983,
          "count" : 60,
          "sum" : 57001
        },
        "totalEnquires" : 58
      },
      "score" : [
        {
          "messages" : [
            {
              "code" : "e_sd_1",
              "text" : "As this entity is in external administration or is not registered we cannot provide business scoring for it"
            }
          ],
          "score" : -991,
          "type" : "Business"
        }
      ],
      "summary" : {
        "averagePaymentDays" : 0,
        "defaultsCount" : 0,
        "enquiriesCount" : 60,
        "judgementsCount" : 0,
        "organisationStatus" : "Inactive",
        "securitiesCount" : 4
      }
    }
  },
  "loanAmount" : 0,
  "nzbn" : 2,
  "xeroData" : [	]
}